997823 997823
5965 461352
291995 274271
240091 903013
42558 235634
634888 981598
593766 704240
846909 608863
790447 921444
987817 693148
804053 2426
641133 956458
781545 518320
593676 339301
834253 174236
892800 485061
727675 220026
777849 922929
440728 591745
782521 96289
505009 746484
439536 689974
788637 720586
220184 895271
949390 489446
975550 780193
573068 41495
171747 724963
815013 996580
690217 976018
763344 173403
933169 302988
191558 732190
469530 110309
183494 740446
951865 282735
892021 450234
609617 898646
780938 820381
636174 523717
21663 727406
622741 671646
73658 522872
924244 940060
193343 412548
806825 957923
825482 139176
673105 827614
439157 686205
209870 699947
913582 405293
403700 725041
736163 983759
192251 93231
235828 981403
87644 474562
203988 348445
495048 850907
33125 323977
135489 502450
90536 115941
986138 859902
325330 26868
201635 42895
345872 672602
105915 458842
87208 279851
177924 926732
391705 473759
461267 310084
394008 961939
730583 939569
640652 851120
259585 795726
602789 388701
643935 540018
364954 346603
510139 233759
383120 475228
18648 114636
123174 739080
761300 48140
833525 894733
415468 645375
514405 902374
596296 834559
65536 176757
524547 781847
619388 774046
410524 896780
436431 887030
907659 654960
86973 223672
926441 240751
357097 106747
544748 948180
752620 673048
984374 465732
982653 685373
680960 443946
199140 129001
862457 43483
579029 780733
452887 466065
323527 106128
187154 385010
348557 71110
882986 907128
286226 858739
951511 143562
403797 375105
430671 508388
514681 966023
108958 940242
62893 803878
28040 129154
364625 215468
135571 934553
465313 29201
769294 533848
152888 240066
734586 216605
770383 887765
224058 782797
500959 749835
123477 747102
962751 937762
73154 267598
885560 209067
668395 315500
168565 232955
516878 76076
866638 397541
323348 914708
287305 555715
698543 272277
816461 739243
59026 821133
210786 78460
942211 48763
918152 328173
588853 193497
472213 29711
615076 398699
408664 248386
41959 219799
171926 825201
385782 631397
505788 650645
916254 906222
525693 901013
353448 885362
65780 941511
112832 25379
20647 263515
344389 462645
58943 83634
913755 890617
517888 418309
226636 421282
425217 858779
630120 873807
840523 847712
463402 492097
71877 969345
483779 631291
64536 223177
504899 837363
567565 969319
754597 665890
702654 349796
725761 431022
902977 80670
298256 641775
583656 536554
221680 298778
844015 979009
469877 205668
334390 275343
76827 109159
35882 241832
972046 924628
303197 105209
343513 180585
616476 811827
913896 301081
371430 765214
347462 974728
88657 66502
145801 907095
407209 225244
163926 238285
877840 986208
12030 607929
882402 781137
460599 293247
439972 726257
989405 589078
156743 631295
682566 529333
283724 179825
322878 3208
812329 381588
379828 404126
53676 175781
358908 673690
269717 550395
513286 68525
247803 239224
91745 972272
715425 323740
466436 302849
111557 179289
227584 38577
105486 231696
479131 224546
948951 321240
365470 176317
680945 931795
105678 909013
943249 568312
633821 209522
14025 297742
122662 497035
363241 660969
542896 299077
